<svg id="Funicular" data-name="Calque 1" width="30" height="30" viewBox="0 0 30 30" y="60"
     xmlns="http://www.w3.org/2000/svg">
  <defs>
    <style>.accls-1{fill:none}.accls-2{fill:#FFF}</style>
  </defs>
  <rect class="accls-1" x="4.54" y="4.54" width="20.92" height="20.92" rx="1.41" ry="1.41"/>
  <path class="accls-2"
        d="M24 3H6a3 3 0 00-3 3v18a3 3 0 003 3h18a3 3 0 003-3V6a3 3 0 00-3-3zM6 4.54h18A1.42 1.42 0 0125.46 6v7.15l-.13.11-5.93 5.88H4.54V6A1.42 1.42 0 016 4.54zm18 20.92H6A1.42 1.42 0 014.54 24v-3h15.27a1 1 0 00.69-.28l5-5V24a1.42 1.42 0 01-1.5 1.46z"/>
  <path class="accls-2"
        d="M5.88 18l.06.11.06.07.09.08.12.07h11.98l.12-.07.1-.08.07-.11.08-.07v-7.87l-.07-.13-.07-.09-.1-.08-.12-.06H6.25l-.12.06-.13.09-.06.08-.06.12v7.7zm4.17-3.41v-3.76h4.06v3.72h-4.06zm7-3.72h.14l.06.06V14.36h-2.62v-3.53h2.45zm-10.1 3.28v-3.07L7 11h.06v-.06h2.48v3.72H7.12l-.12-.3V14.15z"/>
</svg>
