<svg width="30" height="30" fill="none" viewBox="0 0 30 30" id="Metro" x="260" y="180"
     xmlns="http://www.w3.org/2000/svg">
  <g clip-path="url(#cnclip0)" fill="#FFF">
    <path
      d="M22.463 21.713V8.627c0-.75-.413-1.538-1.651-1.538-.937 0-1.313.413-1.724 1.237l-4.05 8.438H15l-4.089-8.438c-.412-.824-.787-1.234-1.725-1.234-1.237 0-1.65.784-1.65 1.535v13.086c0 .713.563 1.126 1.239 1.126.599 0 1.27-.413 1.27-1.126V11.96h.038l3.716 7.578c.262.529.6.825 1.2.825s.937-.3 1.2-.825l3.712-7.578h.038v9.75c0 .713.675 1.125 1.276 1.125.674 0 1.237-.412 1.237-1.126"/>
    <path
      d="M15 0a15 15 0 10-.003 30.001A15 15 0 0015 0zm0 28.045a13.05 13.05 0 11-.009-26.1 13.05 13.05 0 01.008 26.1z"/>
  </g>
  <defs>
    <clipPath id="cnclip0">
      <path fill="#fff" d="M0 0h29.999v30H0z"/>
    </clipPath>
  </defs>
</svg>
