<svg width="30" height="30" viewBox="0 0 61 60" fill="none" id="Navette" x="260" y="210"
     xmlns="http://www.w3.org/2000/svg">
  <g clip-path="url(#coclip0)">
    <rect x="1" width="60" height="60" rx="2"/>
    <path
      d="M59.049 3.899H2.948a1.95 1.95 0 110-3.899H59.04a1.95 1.95 0 010 3.899h.009zm1.94 54.151a1.95 1.95 0 00-1.949-1.949H2.948a1.95 1.95 0 000 3.899H59.04a1.95 1.95 0 001.95-1.95zm-39.6-14.158a12.278 12.278 0 017.899.233c.448.17.846.366 1.206.54.148.074.343.169.502.24.159-.071.353-.166.502-.24.355-.174.757-.37 1.21-.54a12.277 12.277 0 017.898-.233l6.932-10.795a.846.846 0 00-.544-1.27l-1.073-.212h-.01l-.75-.152v-.053c-.01-2.367-.495-6.966-.5-6.985a4.138 4.138 0 00-1.058-2.236 3.598 3.598 0 00-2.388-1.177 151.64 151.64 0 00-5.715-.277v-1.833a.9.9 0 00-.9-.9h-2.582V12.68a.677.677 0 00-.68-.677h-.68a.674.674 0 00-.678.677v5.324h-2.582a.9.9 0 00-.9.9v1.84c-2.17.068-4.233.174-5.715.278-.92.064-1.779.48-2.398 1.162-.573.62-.942 1.4-1.059 2.235 0 .036-.489 4.613-.497 6.985v.053l-1.088.212-.743.148a.847.847 0 00-.542 1.27l6.932 10.806zM20.01 24.765c.042-.286.17-.553.366-.766a.924.924 0 01.6-.292c2.463-.171 6.517-.345 10.022-.345s7.56.174 10.025.345a.91.91 0 01.597.292c.197.214.325.483.368.77.055.515.351 3.497.447 5.614a.424.424 0 01-.502.424L31.349 28.69a1.742 1.742 0 00-.694 0l-10.583 2.116a.425.425 0 01-.5-.423c.098-2.235.423-5.37.447-5.618h-.009zm30.875 23.75a7.353 7.353 0 00-4.357.188l-.322.117c-.116.042-.234.078-.355.116a9.948 9.948 0 01-5.146.144 5.81 5.81 0 01-.72-.212 9.625 9.625 0 01-.35-.12l-.149-.055-.13-.047a7.694 7.694 0 00-1.068-.275 7.51 7.51 0 00-2.21-.053 7.757 7.757 0 00-1.602.392c-.172.063-.313.13-.493.211-.362.172-.767.388-1.25.582a4.163 4.163 0 01-3.452 0c-.484-.194-.889-.41-1.248-.582a5.882 5.882 0 00-1.017-.38 7.83 7.83 0 00-1.081-.223 7.51 7.51 0 00-2.21.053 7.665 7.665 0 00-1.058.275l-.13.047-.148.055a9.73 9.73 0 01-.353.12c-.235.079-.476.144-.718.212a9.937 9.937 0 01-5.145-.144c-.119-.038-.24-.074-.358-.116l-.322-.117a7.353 7.353 0 00-4.356-.188.864.864 0 01-.974-.57l-.296-.785a.847.847 0 01.635-1.081 9.893 9.893 0 015.861.256l.288.103.26.085c.176.053.354.1.534.138a7.41 7.41 0 003.827-.178l.258-.091.159-.057.173-.064c.472-.16.955-.284 1.446-.37.979-.17 1.977-.194 2.963-.072.493.061.98.16 1.457.298.241.07.476.146.713.233.237.087.487.212.694.303.424.199.784.39 1.105.516a1.705 1.705 0 001.575 0c.324-.127.686-.317 1.105-.516a7.51 7.51 0 01.698-.303 9.562 9.562 0 012.165-.531 10.134 10.134 0 012.964.072c.49.086.974.21 1.446.37l.176.064.156.057.259.09a7.38 7.38 0 004.36.04l.262-.084.286-.103a9.895 9.895 0 015.861-.257.833.833 0 01.625 1.082l-.297.785a.863.863 0 01-.973.57"
      fill="#FFF"/>
  </g>
  <defs>
    <clipPath id="coclip0">
      <path fill="#fff" transform="translate(.998)" d="M0 0h60v60H0z"/>
    </clipPath>
  </defs>
</svg>
